1:
3.76
3.39
3.6
4.39
3.68
3.81
3.46
3.68
3.91
3.54
3.18
3.81
3.85
3.88
3.04
3.71
3.62
4.25
3.98
4.02
3.24
4.62
3.54
10:
3.34
3.16
1000:
3.65
3.27
3.09
4.49
3.85
3.91
3.32
3.99
3.32
3.11
3.53
3.71
3.51
4.27
3.98
3.37
3.34
3.36
3.47
3.79
3.63
3.97
3.33
3.37
4.07
3.4
3.76
10000:
3.96
3.78
10001:
3.21
4.07
3.65
2.95
4.09
3.45
3.48
3.89
3.82
3.4
3.96
3.96
3.1
3.99
3.6
3.63
4.13
10002:
4.19
3.51
4.5
4.27
10003:
3.3
10004:
4.45
3.76
3.92
3.61
4.17
3.92
4.38
4.31
3.89
3.85
4.15
3.72
3.97
3.58
4.48
4.01
4.0
3.99
4.13
3.9
3.96
3.71
3.82
3.8
4.62
3.57
3.81
3.94
3.33
4.21
4.08
10005:
3.75
4.07
3.52
3.32
3.43
10006:
4.06
3.66
4.19
3.3
10007:
3.01
3.18
3.11
3.14
2.98
3.03
3.21
3.56
3.39
3.5
3.13
3.3
3.18
10008:
4.42
3.39
3.58
3.11
4.09
3.92
3.91
10009:
3.38
3.62
4.43
3.1
3.0
3.56
1001:
3.89
3.61
3.57
3.26
4.03
4.0
3.8
3.46
3.29
3.77
3.73
3.93
3.25
3.72
3.57
3.51
4.0
3.86
2.89
3.61
3.28
3.8
3.52
3.12
3.38
3.31
3.72
3.63
3.76
4.14
3.76
4.5
3.26
3.61
3.56
3.61
4.05
3.1
3.24
3.8
3.97
3.31
3.73
3.99
4.05
3.75
3.51
3.4
3.41
4.04
3.41
2.82
2.96
3.89
3.89
4.1
3.33
3.56
3.94
3.25
3.69
3.38
3.57
3.24
3.97
3.26
3.47
3.27
3.98
3.64
3.28
3.35
3.66
3.28
3.18
3.8
3.03
3.01
3.66
3.7
3.94
3.99
2.99
3.49
3.61
3.42
3.54
3.9
3.61
3.18
4.03
3.67
3.75
3.81
3.37
3.08
3.24
3.92
3.5
3.7
3.71
3.61
3.33
3.3
3.63
3.6
3.76
3.89
3.75
3.08
3.31
3.54
3.56
3.29
3.56
3.21
3.3
3.97
3.77
3.33
3.49
3.62
3.42
3.62
3.57
3.53
3.33
3.89
3.56
3.46
3.61
3.8
3.72
3.14
10010:
3.18
3.03
3.06
3.65
3.46
3.23
3.25
2.69
2.68
3.37
2.9
2.88
2.97
2.77
3.58
3.16
2.9
3.42
2.45
3.15
2.79
3.04
2.97
10011:
3.97
3.57
10012:
3.46
4.11
3.29
3.46
3.88
3.93
2.98
3.4
3.39
3.59
3.91
3.6
3.39
10013:
3.82
3.46
3.68
3.79
3.46
3.64
3.41
3.73
3.5
3.88
3.19
4.04
3.46
3.7
3.35
3.48
3.24
3.39
3.53
3.18
3.32
3.01
3.45
3.71
3.31
3.46
3.54
2.94
3.24
3.55
3.34
3.24
3.27
3.87
3.4
3.27
3.51
3.85
3.83
3.14
4.05
3.5
3.55
3.61
3.67
3.13
3.48
3.62
3.29
3.71
3.31
3.92
3.71
3.88
3.67
3.04
3.89
10014:
3.36
4.0
3.07
3.92
3.39
10015:
3.67
3.31
3.04
3.49
3.75
3.46
3.87
3.71
3.85
3.51
3.8
3.58
3.5
3.9
3.9
3.43
3.75
3.93
3.58
3.9
4.64
3.91
4.26
3.01
3.24
3.34
3.97
3.6
10016:
3.04
2.73
2.71
3.37
3.94
10017:
3.35
3.74
3.54
10018:
4.41
3.77
3.07
3.41
3.48
3.72
3.49
3.46
2.63
3.83
3.6
3.85
3.63
3.73
3.32
3.66
3.48
3.62
3.68
3.62
3.89
3.28
3.91
3.99
3.46
3.84
3.59
3.78
3.65
3.95
10019:
3.59
3.05
3.81
3.29
4.24
4.15
3.65
3.03
3.84
3.5
4.32
3.24
3.3
3.58
3.82
3.75
3.88
3.6
3.53
4.28
3.82
3.85
3.83
3.67
3.94
3.83
3.93
3.46
3.53
3.82
3.56
3.51
3.82
3.9
3.46
4.0
2.83
3.74
3.88
3.99
4.0
4.14
3.47
3.88
4.14
3.31
3.86
4.11
3.9
3.71
3.3
3.43
3.67
3.47
2.83
2.84
3.34
3.41
4.25
3.34
3.19
3.55
3.87
3.54
3.84
4.52
3.53
4.49
3.68
1002:
3.42
3.16
3.51
3.62
3.41
3.69
3.86
2.85
3.57
3.58
4.03
3.63
3.48
3.29
10020:
3.78
3.88
3.64
3.96
3.77
3.62
3.9
4.34
4.01
3.84
3.8
4.5
3.64
3.79
3.82
3.8
4.04
3.54
3.98
3.61
4.13
3.4
3.7
3.64
3.34
2.78
4.01
10021:
3.15
3.46
3.46
3.23
10022:
2.82
3.58
3.32
3.18
3.64
3.6
3.03
3.08
10023:
3.88
3.84
3.84
3.59
4.47
3.59
3.43
3.78
3.55
3.87
4.19
10024:
3.65
3.98
3.62
3.86
3.51
3.42
3.32
3.46
3.77
3.79
10025:
3.41
10027:
4.24
3.62
3.5
3.64
3.16
3.5
3.49
4.22
3.37
4.07
3.7
3.65
3.91
3.62
3.78
4.14
3.58
3.9
4.01
3.77
3.5
3.82
3.72
3.71
4.03
3.89
4.21
4.21
4.46
4.22
4.26
3.95
3.35
3.49
3.8
4.13
4.03
3.89
3.93
3.5
4.05
4.04
4.62
3.67
3.61
3.94
3.96
3.81
4.1
4.09
3.78
4.06
3.64
3.57
3.5
3.92
3.52
3.56
4.13
4.01
3.55
3.55
3.78
3.15
4.23
4.43
3.38
3.96
3.37
4.04
3.99
3.96
3.94
3.62
4.24
3.85
4.05
3.85
3.12
3.65
4.23
4.47
3.33
3.71
3.89
4.08
3.73
3.92
10028:
3.35
3.52
3.29
4.05
4.22
3.25
4.27
10029:
3.44
4.08
4.0
3.26
10031:
3.53
3.08
3.76
2.94
4.12
3.29
3.1
2.84
2.94
10032:
3.13
4.48
4.04
4.12
3.85
3.03
3.56
3.44
3.79
2.74
3.43
4.07
4.41
3.53
3.92
3.08
3.72
3.52
3.57
3.68
3.35
3.57
3.41
3.96
3.69
3.24
3.55
3.57
4.14
3.36
3.94
3.77
3.89
3.75
3.35
3.92
3.65
3.4
3.5
3.55
3.57
3.66
3.46
3.21
3.47
3.62
3.88
10033:
3.86
3.62
2.97
3.68
3.57
3.3
3.38
3.28
3.63
3.43
3.74
3.53
4.43
3.9
10034:
2.68
3.22
10035:
2.8
4.24
4.36
3.97
4.11
4.02
3.43
3.27
3.57
3.48
3.81
3.69
3.82
3.93
3.71
3.73
3.83
3.88
3.97
4.65
10036:
3.65
3.42
3.56
3.38
3.79
3.61
3.22
3.68
3.05
3.44
3.35
3.61
3.6
3.71
4.29
3.88
3.68
3.86
2.88
3.21
3.7
3.42
4.27
3.84
3.77
4.02
4.21
3.76
3.79
3.16
3.65
3.24
3.16
3.47
3.33
3.38
3.71
3.68
3.53
3.77
3.44
3.71
4.06
3.99
3.8
3.95
4.46
4.45
3.28
3.92
3.37
3.54
3.68
3.23
3.61
3.92
3.33
4.5
3.47
3.91
3.77
4.21
3.45
4.19
3.32
4.23
3.58
4.07
3.76
3.85
4.35
3.91
3.77
3.37
3.81
4.07
3.94
3.78
3.93
3.96
3.68
3.5
4.34
3.91
3.1
3.74
3.54
3.8
3.77
3.68
3.18
4.0
3.54
3.98
3.56
3.36
3.36
4.23
3.5
3.99
4.02
3.63
3.54
4.42
3.41
3.17
3.91
3.32
3.42
3.77
3.77
3.43
3.82
3.77
3.49
3.65
4.3
3.44
3.51
3.83
3.67
3.75
3.79
3.45
3.82
3.43
3.95
4.24
3.58
3.4
4.08
3.28
3.35
4.29
3.51
3.34
3.78
3.74
3.93
3.89
4.24
4.13
3.41
3.64
3.4
4.32
3.69
3.98
3.47
3.34
3.87
4.24
3.6
3.37
3.64
3.5
4.45
3.82
3.79
4.16
3.93
3.48
3.83
3.92
3.65
3.64
3.91
4.13
3.61
3.52
3.8
3.54
3.98
3.51
3.83
3.79
3.55
4.12
3.91
4.15
3.67
4.15
3.99
3.75
4.36
3.58
3.61
3.58
3.86
3.68
3.7
3.3
3.81
4.37
3.93
3.17
3.66
3.88
3.23
3.72
3.72
3.71
3.56
3.7
2.5
4.35
3.75
3.99
3.45
3.58
3.68
3.47
4.13
3.54
3.49
0.97
